xschem/freq_divider/testbenches/vcd/tb_Mod7_Counter.vcd
$date
	Sat Feb  7 11:29:40 2026
$end
$version
	Icarus Verilog
$end
$timescale
	1ps
$end
$scope module tb_Mod7_Counter $end
$var wire 1 ! d $end
$var wire 1 " c $end
$var wire 1 # b $end
$var reg 1 $ clk $end
$var reg 1 % rst $end
$scope module uut $end
$var wire 1 $ clk $end
$var wire 1 & gate1_out $end
$var wire 1 ' gate2_out $end
$var wire 1 ( gate3_out $end
$var wire 1 % rst $end
$var wire 1 ) d_bar $end
$var wire 1 ! d $end
$var wire 1 * c_bar $end
$var wire 1 " c $end
$var wire 1 # b $end
$scope module jk1 $end
$var wire 1 $ clk $end
$var wire 1 + d_in $end
$var wire 1 & j $end
$var wire 1 , k $end
$var wire 1 - q_bar_curr $end
$var wire 1 . q_curr $end
$var wire 1 % rst $end
$var wire 1 / q_bar $end
$var wire 1 # q $end
$scope module dff_inst $end
$var wire 1 $ clk $end
$var wire 1 + d $end
$var wire 1 / q_bar $end
$var wire 1 % rst $end
$var reg 1 # q $end
$upscope $end
$upscope $end
$scope module jk2 $end
$var wire 1 $ clk $end
$var wire 1 0 d_in $end
$var wire 1 # j $end
$var wire 1 ' k $end
$var wire 1 1 q_bar_curr $end
$var wire 1 2 q_curr $end
$var wire 1 % rst $end
$var wire 1 * q_bar $end
$var wire 1 " q $end
$scope module dff_inst $end
$var wire 1 $ clk $end
$var wire 1 0 d $end
$var wire 1 * q_bar $end
$var wire 1 % rst $end
$var reg 1 " q $end
$upscope $end
$upscope $end
$scope module jk3 $end
$var wire 1 $ clk $end
$var wire 1 3 d_in $end
$var wire 1 ( j $end
$var wire 1 " k $end
$var wire 1 4 q_bar_curr $end
$var wire 1 5 q_curr $end
$var wire 1 % rst $end
$var wire 1 ) q_bar $end
$var wire 1 ! q $end
$scope module dff_inst $end
$var wire 1 $ clk $end
$var wire 1 3 d $end
$var wire 1 ) q_bar $end
$var wire 1 % rst $end
$var reg 1 ! q $end
$upscope $end
$upscope $end
$upscope $end
$upscope $end
$enddefinitions $end
$comment Show the parameter values. $end
$dumpall
$end
#0
$dumpvars
05
14
03
02
11
00
1/
0.
1-
1,
1+
1*
1)
0(
0'
1&
1%
0$
0#
0"
0!
$end
#5000
1$
#10000
0$
#15000
1$
#20000
0$
0%
#25000
0+
10
0-
0/
1'
1.
1#
1$
#30000
0$
#35000
1+
10
1-
1/
0'
01
0*
0.
0#
12
1"
1$
#40000
0$
#45000
00
0+
13
0-
0/
1(
1'
1.
1#
1$
#50000
0$
#55000
1+
1-
1/
11
1*
0(
04
0)
0.
0#
02
0"
15
1!
1$
#60000
0$
#65000
0+
10
0-
0/
1.
1#
1$
#70000
0$
#75000
03
00
0&
1-
1/
01
0*
0.
0#
12
1"
1$
#80000
0$
#85000
1+
1&
14
1)
0'
11
1*
05
0!
02
0"
1$
#90000
0$
#95000
0+
10
0-
0/
1'
1.
1#
1$
#100000
0$
#105000
1+
10
01
0*
1-
1/
0'
12
1"
0.
0#
1$
#110000
0$
#115000
00
0+
13
0-
0/
1(
1'
1.
1#
1$
#120000
0$
#125000
1+
04
0)
11
1*
1-
1/
0(
15
1!
02
0"
0.
0#
1$
#130000
0$
#135000
0+
10
0-
0/
1.
1#
1$
#140000
0$
#145000
03
0+
0&
00
01
0*
1-
1/
12
1"
0.
0#
1$
#150000
0$
#155000
1+
1&
11
1*
14
1)
0'
02
0"
05
0!
1$
#160000
0$
#165000
0+
10
0-
0/
1'
1.
1#
1$
#170000
0$
#175000
1+
10
1-
1/
0'
01
0*
0.
0#
12
1"
1$
#180000
0$
#185000
00
0+
13
0-
0/
1(
1'
1.
1#
1$
#190000
0$
#195000
1+
1-
1/
11
1*
0(
04
0)
0.
0#
02
0"
15
1!
1$
#200000
0$
#205000
0+
10
0-
0/
1.
1#
1$
#210000
0$
#215000
03
00
0&
1-
1/
01
0*
0.
0#
12
1"
1$
