schematic/freq_divider/testbenches/vcd/tb_Prescaler_4_5.vcd
$date
	Sat Feb  7 10:44:03 2026
$end
$version
	Icarus Verilog
$end
$timescale
	1ps
$end
$scope module tb_Prescaler_4_5 $end
$var wire 1 ! clk_jk $end
$var reg 1 " clk $end
$var reg 1 # mc $end
$var reg 1 $ rst $end
$scope module uut $end
$var wire 1 " clk $end
$var wire 1 ! clk_jk $end
$var wire 1 % d1 $end
$var wire 1 & d2 $end
$var wire 1 ' d3 $end
$var wire 1 # mc $end
$var wire 1 ( mc_gated $end
$var wire 1 $ rst $end
$var wire 1 ) q3 $end
$var wire 1 * q2 $end
$var wire 1 + q1_n $end
$scope module ff1 $end
$var wire 1 " clk $end
$var wire 1 % d $end
$var wire 1 + q_bar $end
$var wire 1 $ rst $end
$var reg 1 , q $end
$upscope $end
$scope module ff2 $end
$var wire 1 " clk $end
$var wire 1 & d $end
$var wire 1 - q_bar $end
$var wire 1 $ rst $end
$var reg 1 * q $end
$upscope $end
$scope module ff3 $end
$var wire 1 " clk $end
$var wire 1 ' d $end
$var wire 1 . q_bar $end
$var wire 1 $ rst $end
$var reg 1 ) q $end
$upscope $end
$upscope $end
$upscope $end
$enddefinitions $end
$comment Show the parameter values. $end
$dumpall
$end
#0
$dumpvars
1.
1-
0,
1+
0*
0)
0(
0'
1&
0%
1$
0#
0"
0!
$end
#5000
1"
#10000
0"
#15000
1"
#20000
0"
0$
#25000
0-
1'
1*
1"
#30000
0"
#35000
1%
0.
1(
1!
1)
1"
#40000
0"
#45000
0&
0+
1,
1"
#50000
0"
#55000
1-
0%
0'
0*
1"
#60000
0"
#65000
1.
0(
1&
1+
0!
0)
0,
1"
#70000
0"
#75000
0-
1'
1*
1"
#80000
0"
#85000
1%
0.
1(
1!
1)
1"
#90000
0"
#95000
0&
0+
1,
1"
#100000
0"
#105000
1-
0%
0'
0*
1"
#110000
0"
#115000
1&
1+
1.
0(
0,
0!
0)
1"
#120000
0"
#125000
0-
1'
1*
1"
#130000
0"
#135000
1%
0.
1(
1!
1)
1"
#140000
0"
#145000
0&
0+
1,
1"
#150000
0"
#155000
1-
0%
0'
0*
1"
#160000
0"
#165000
1.
0(
1&
1+
0!
0)
0,
1"
#170000
0"
#175000
0-
1'
1*
1"
#180000
0"
#185000
1%
0.
1(
1!
1)
1"
#190000
0"
#195000
0&
0+
1,
1"
#200000
0"
#205000
1-
0%
0'
0*
1"
#210000
0"
#215000
1&
1+
1.
0(
0,
0!
0)
1"
#220000
1(
0"
1#
#225000
0-
1%
1'
1*
1"
#230000
0"
#235000
0&
0+
0.
1,
1!
1)
1"
#240000
0"
#245000
1-
0%
0'
0*
1"
#250000
0"
#255000
1&
1+
1.
0,
0!
0)
1"
#260000
0"
#265000
0-
1%
1'
1*
1"
#270000
0"
#275000
0&
0+
0.
1,
1!
1)
1"
#280000
0"
#285000
1-
0%
0'
0*
1"
#290000
0"
#295000
1&
1+
1.
0,
0!
0)
1"
#300000
0"
#305000
0-
1%
1'
1*
1"
#310000
0"
#315000
0&
0+
0.
1,
1!
1)
1"
#320000
0"
#325000
1-
0%
0'
0*
1"
#330000
0"
#335000
1&
1+
1.
0,
0!
0)
1"
#340000
0"
#345000
0-
1%
1'
1*
1"
#350000
0"
#355000
0&
0+
0.
1,
1!
1)
1"
#360000
0"
#365000
1-
0%
0'
0*
1"
#370000
0"
#375000
1&
1+
1.
0,
0!
0)
1"
#380000
0"
#385000
0-
1%
1'
1*
1"
#390000
0"
#395000
0&
0+
0.
1,
1!
1)
1"
#400000
0"
#405000
1-
0%
0'
0*
1"
#410000
0"
#415000
1&
1+
1.
0,
0!
0)
1"
